# Pain effects 
# 1. by increasing low frequency effects (changing l from 0 to 1)
# 2. by increasing making low frequency effects painful (changing r from 1 to 2)

r=1
l=0

run 3

#######

l=1

run 15

#######

run 4

#######

r=2

run 15

#######

run 3

