# Rectangular modulation: Demonstration of the effect of b.t0:
# b.t0 increases fro 10ms to 100ms at a frequency of 5 Hz
# * full phase shift

b.a=1
b.t0=10
b.t1=190
b.s=1

run 3

#######

b.t0=100
b.t1=100

run 24

#######

run 3


