# shock patterns with amplitude slowly increasing amplitude from 1 to 1.5
# triangular shape, avg. duty  ratio 50%

a.a0=1
a.a1=0
a.t0=0
a.tr=0.25
a.t1=0
a.n=20
a.t2=3

run 3

#######

a.a0=1.5

run 31

#######

run 6


